digraph "List"
{
  edge [fontname="Helvetica",fontsize="10",labelfontname="Helvetica",labelfontsize="10"];
  node [fontname="Helvetica",fontsize="10",shape=record];
  Node1 [label="List",height=0.2,width=0.4,color="black", fillcolor="grey75", style="filled", fontcolor="black"];
  Node2 -> Node1 [dir="back",color="darkorchid3",fontsize="10",style="dashed",label=" head\ntail" ];
  Node2 [label="ListElement",height=0.2,width=0.4,color="black", fillcolor="white", style="filled",URL="$de/dee/structListElement.html",tooltip="Represents a List element object type. "];
  Node2 -> Node2 [dir="back",color="darkorchid3",fontsize="10",style="dashed",label=" previous\nnext" ];
}
